…
# Same thing using dplyr manipulation verbs
library(dplyr)
wlddev |> filter(year > 1990) |> select(region, income, PCGDP:ODA) |>
  group_by(region,income) |> fmean()       # This is already a lot faster than summarize_all(mean)
#> # A tibble: 23 × 6
#>    region                    income               PCGDP LIFEEX  GINI        ODA
#>    <fct>                     <fct>                <dbl>  <dbl> <dbl>      <dbl>
#>  1 East Asia & Pacific       High income         32671.   78.2  33.0 112194118.
#>  2 East Asia & Pacific       Lower middle income  1739.   65.5  36.5 509965862.
#>  3 East Asia & Pacific       Upper middle income  4576.   70.9  40.6 219146704.
#>  4 Europe & Central Asia     High income         40814.   77.7  30.9 321907195.
#>  5 Europe & Central Asia     Low income            696.   65.0  32.1 244539286.
#>  6 Europe & Central Asia     Lower middle income  1780.   68.8  30.7 395371417.
#>  7 Europe & Central Asia     Upper middle income  5182.   71.3  34.9 463652924.
#>  8 Latin America & Caribbean High income         19865.   75.6  48.4  31307379.
#>  9 Latin America & Caribbean Low income           1190.   59.0  41.1 753747928.
#> 10 Latin America & Caribbean Lower middle income  1988.   69.3  50.6 559540257.
#> # ℹ 13 more rows
…
