…
library(dplyr)
gmtcars <- group_by(mtcars,cyl,vs,am)
head(dapply(gmtcars, log))               # Still gives a grouped tibble back
#> # A tibble: 6 × 11
#> # Groups:   cyl, vs, am [4]
#>     mpg   cyl  disp    hp  drat    wt  qsec    vs    am  gear  carb
#>   <dbl> <dbl> <dbl> <dbl> <dbl> <dbl> <dbl> <dbl> <dbl> <dbl> <dbl>
#> 1  3.04  1.79  5.08  4.70  1.36 0.963  2.80  -Inf     0  1.39 1.39 
#> 2  3.04  1.79  5.08  4.70  1.36 1.06   2.83  -Inf     0  1.39 1.39 
#> 3  3.13  1.39  4.68  4.53  1.35 0.842  2.92     0     0  1.39 0    
#> 4  3.06  1.79  5.55  4.70  1.12 1.17   2.97     0  -Inf  1.10 0    
#> 5  2.93  2.08  5.89  5.16  1.15 1.24   2.83  -Inf  -Inf  1.10 0.693
#> 6  2.90  1.79  5.42  4.65  1.02 1.24   3.01     0  -Inf  1.10 0    
dapply(gmtcars, quantile, MARGIN = 1)    # Here it makes sense to keep the groups attribute
#> # A tibble: 32 × 5
#> # Groups:   cyl, vs, am [7]
#>     `0%` `25%` `50%` `75%` `100%`
#>  * <dbl> <dbl> <dbl> <dbl>  <dbl>
#>  1     0  3.26  4     18.7   160 
#>  2     0  3.39  4     19.0   160 
#>  3     1  1.66  4     20.7   108 
#>  4     0  2     3.22  20.4   258 
#>  5     0  2.5   3.44  17.9   360 
#>  6     0  1.88  3.46  19.2   225 
#>  7     0  3.10  4     15.1   360 
#>  8     0  2.60  4     22.2   147.
#>  9     0  2.58  4     22.8   141.
#> 10     0  3.68  4     18.8   168.
#> # ℹ 22 more rows
…
