…
# Using a random forest model without fixed effects
# ranger does not support these kinds of formulas, thus we need some preprocessing...
wldi |> fselect(PCGDP, LIFEEX) |>
  fgrowth(5, power = 1/5) |> ftransform(LIFEEX_L5 = L(LIFEEX, 5)) |>
  unindex() |> na_omit() |> ranger::ranger(formula = PCGDP ~.)
#> Error in loadNamespace(x): there is no package called ‘ranger’
 # \dontrun{}

# Indexing other data frame based classes --------------------------------------

library(tibble)
wlditbl <- qTBL(wlddev) |> findex_by(iso3c, year)
wlditbl[,2] # Works like a tibble...
#> # A tibble: 13,176 × 1
#>    iso3c
#>    <fct>
#>  1 AFG  
#>  2 AFG  
#>  3 AFG  
#>  4 AFG  
#>  5 AFG  
#>  6 AFG  
#>  7 AFG  
#>  8 AFG  
#>  9 AFG  
#> 10 AFG  
#> # ℹ 13,166 more rows
…
#> attr(,"label")
#> [1] Country Code
#> 216 Levels: ABW AFG AGO ALB AND ARE ARG ARM ASM ATG AUS AUT AZE BDI BEL ... ZWE
#> 
#> Indexed by:  iso3c [216] | year [61] 
wlditbl[1:1000, 10]
#> # A tibble: 1,000 × 1
#>    LIFEEX
#>     <dbl>
#>  1   32.4
#>  2   33.0
#>  3   33.5
#>  4   34.0
#>  5   34.5
#>  6   34.9
#>  7   35.4
#>  8   35.9
#>  9   36.4
#> 10   36.9
#> # ℹ 990 more rows
#> 
#> Indexed by:  iso3c [17] | year [61] 
head(wlditbl)
#> # A tibble: 6 × 13
#>   country   iso3c date        year decade region income OECD  PCGDP LIFEEX  GINI
#>   <chr>     <fct> <date>     <int>  <int> <fct>  <fct>  <lgl> <dbl>  <dbl> <dbl>
#> 1 Afghanis… AFG   1961-01-01  1960   1960 South… Low i… FALSE    NA   32.4    NA
#> 2 Afghanis… AFG   1962-01-01  1961   1960 South… Low i… FALSE    NA   33.0    NA
#> 3 Afghanis… AFG   1963-01-01  1962   1960 South… Low i… FALSE    NA   33.5    NA
#> 4 Afghanis… AFG   1964-01-01  1963   1960 South… Low i… FALSE    NA   34.0    NA
#> 5 Afghanis… AFG   1965-01-01  1964   1960 South… Low i… FALSE    NA   34.5    NA
#> 6 Afghanis… AFG   1966-01-01  1965   1960 South… Low i… FALSE    NA   34.9    NA
#> # ℹ 2 more variables: ODA <dbl>, POP <dbl>
#> 
#> Indexed by:  iso3c [1] | year [6 (61)] 

library(data.table)
wldidt <- qDT(wlddev) |> findex_by(iso3c, year)
wldidt[1:1000]      # Works like a data.table...
#>           country  iso3c       date  year decade                    region
#>            <char> <fctr>     <Date> <int>  <int>                    <fctr>
#>    1: Afghanistan    AFG 1961-01-01  1960   1960                South Asia
#>    2: Afghanistan    AFG 1962-01-01  1961   1960                South Asia
#>    3: Afghanistan    AFG 1963-01-01  1962   1960                South Asia
#>    4: Afghanistan    AFG 1964-01-01  1963   1960                South Asia
#>            income   OECD    PCGDP LIFEEX  GINI       ODA     POP
#>            <fctr> <lgcl>    <num>  <num> <num>     <num>   <num>
#>    1:  Low income  FALSE       NA 32.446    NA 116769997 8996973
#>    2:  Low income  FALSE       NA 32.962    NA 232080002 9169410
#>    3:  Low income  FALSE       NA 33.471    NA 112839996 9351441
#>    4:  Low income  FALSE       NA 33.971    NA 237720001 9543205
#>  [ reached 'max' / getOption("max.print") -- omitted 7 rows ]
…
