…
The result of this iterative procedure is a single data frame containing
on the left side id-columns for each level of nesting (from higher to
lower level), followed by a column containing all the rownames of the
objects (if `!isFALSE(row.names)`), followed by the data columns,
matched at each level of recursion. Optimal results are obtained with
symmetric lists of arrays, matrices or data frames, which `unlist2d`
efficiently binds into a beautiful data frame ready for plotting or
further analysis. See examples below.

## Value

A data frame or (if `DT = TRUE`) a *data.table*.

## Note

For lists of data frames `unlist2d` works just like
`data.table::rbindlist(l, use.names = TRUE, fill = TRUE, idcol = ".id")`
however for lists of lists `unlist2d` does not produce the same output
as
[`data.table::rbindlist`](https://rdrr.io/pkg/data.table/man/rbindlist.html)
because `unlist2d` is a recursive function. You can use
[`rowbind`](https://fastverse.org/collapse/reference/rowbind.md) as a
faithful alternative to
[`data.table::rbindlist`](https://rdrr.io/pkg/data.table/man/rbindlist.html).

The function `rrapply::rrapply(l, how = "melt"|"bind")` is a fast
alternative (written fully in C) for nested lists of atomic elements.

## See also

[`rowbind`](https://fastverse.org/collapse/reference/rowbind.md),
[`rsplit`](https://fastverse.org/collapse/reference/rsplit.md),
[`rapply2d`](https://fastverse.org/collapse/reference/rapply2d.md),
[List
Processing](https://fastverse.org/collapse/reference/list-processing.md),
[Collapse
Overview](https://fastverse.org/collapse/reference/collapse-documentation.md)

## Examples

``` r
## Basic Examples:
l <- list(mtcars, list(mtcars, mtcars))
tail(unlist2d(l))
#>    .id.1 .id.2  mpg cyl  disp  hp drat    wt qsec vs am gear carb
#> 91     2     2 26.0   4 120.3  91 4.43 2.140 16.7  0  1    5    2
#> 92     2     2 30.4   4  95.1 113 3.77 1.513 16.9  1  1    5    2
#> 93     2     2 15.8   8 351.0 264 4.22 3.170 14.5  0  1    5    4
#> 94     2     2 19.7   6 145.0 175 3.62 2.770 15.5  0  1    5    6
#> 95     2     2 15.0   8 301.0 335 3.54 3.570 14.6  0  1    5    8
#>  [ reached 'max' / getOption("max.print") -- omitted 1 rows ]
…
